[
    { "_id": 1,
        "name": "Spirit Airlines",
        "startingPoint":"Chicago",
        "endingPoint": "new jersey",
        " startingTime":"04-15-2018",
        "durationHours":5,
        "numPassengers":50,
        "pilotId": "65",
        "planeId": "3465"   
          
      
    },
    {
      "_id": 2,
      "name": "American Airlines",
      "startingPoint":"Kansas",
      "endingPoint": "Chicago",
     " startingTime":"04-13-2018",
      "durationHours":2,  
      "numPassengers":20,
      "pilotId": "50",
      "planeId": "123"  
    },
    {
        "_id": 3,
        "name": "Ethihad Airlines",
        "startingPoint":"Chicago",
        "endingPoint":  "Abu Dabi",
        " startingTime":"04-12-2018",
        "durationHours":14,
       "numPassengers":150,
        "pilotId": "55",
        "planeId": "234"   
    },
    { "_id": 4,
        "name": "Jey Airways",
        "startingPoint":"Hyderabad",
        "endingPoint": "Abu Dabi",
        " startingTime":"04-11-2018",
        "durationHours":5,
        "numPassengers":35,
        "pilotId": "60",
        "planeId": "345"   
          
      
    },
    { "_id": 5,
        "name": "united Airways",
        "startingPoint":"kansas city",
        "endingPoint": "new jersey",
        " startingTime":"04-15-2018",
        "durationHours":5,
        "numPassengers":50,
        "pilotId": "65",
        "planeId": "3465"   
          
      
    }
  ]